{
  "username": "admin@hindawi.com",
  "email": "admin@hindawi.com",
  "firstName": "testAdmin",
  "lastName": "testAdmin",
  "affiliation": "TST",
  "country": "Australia",
  "title": "Professor",
  "isAdmin": true
}
