{
  "journalName": "Bioinorganic Chemistry and Applications",
  "title": "[Auto] manuscript",
  "articleType": "Research Article",
  "abstract": "Automatic checks",
  "agreeTc": true,
  "authors": [
    {
      "firstName": "Authorel",
      "lastName": "Authoricescu",
      "email": "adrian.onofrei+",
      "country": "Isle of Man",
      "affiliation": "FiveFinger"
    }
  ],
  "conflicts": {
    "hasConflicts": true,
    "message": "The AcademicEditor1 is my friend",
    "hasDataAvailability": false,
    "dataAvailabilityMessage": "Wrong side of heaven",
    "hasFunding": false,
    "fundingMessage": "The Righteous Side Of Hell"
  },
  "journal": {
    "name": "[Auto] journal"
  }
}
