[
  {
    "name": "Review Article"
  },
  {
    "name": "Research Article"
  },
  {
    "name": "Letter to the Editor"
  },
  {
    "name": "Case Report"
  },
  {
    "name": "Erratum"
  },
  {
    "name": "Corrigendum"
  },
  {
    "name": "Editorial"
  },
  {
    "name": "Retraction"
  },
  {
    "name": "Expression of Concern"
  },
  {
    "name": "Case Series"
  }
]
