{
  "registerFirstName": "[name='givenNames']",
  "registerLastName": "[name='surname']", 
  "listBox": "[role='listbox']",
  "optionField": "[role='option']",
  "countryField": "[data-test-id='country-menu']",
  "affiliationField": "[data-test-id='affiliation']",
  "checkboxField": "[name='agreeTc']",
  "proceedButton": "[type='submit']",
  "emailField": "[data-test-id='sign-up-email']",
  "passwordField": "[data-test-id='password']",
  "retypePasswordField": "[data-test-id='confirm-password']",
  "requiredAlert": "[role='alert']",
  "profileAffiliation": "[name='aff']",
  "dataItem": "[data-test-id='item']"
}